E:\F\Project\INTER\Sample_Maven_project\src\main\java\de\shana\rep\UserRepoImpl.java
E:\F\Project\INTER\Sample_Maven_project\src\main\java\de\shana\rep\UserController.java
E:\F\Project\INTER\Sample_Maven_project\src\main\java\de\shana\rep\UserRepo.java
E:\F\Project\INTER\Sample_Maven_project\src\main\java\de\shana\rep\User.java
